{
  "robotWidth": 0.762,
  "robotLength": 0.762,
  "holonomicMode": true,
  "pathFolders": [],
  "autoFolders": [],
  "defaultMaxVel": 3.0,
  "defaultMaxAccel": 3.0,
  "defaultMaxAngVel": 540.0,
  "defaultMaxAngAccel": 720.0,
  "defaultNominalVoltage": 12.0,
  "robotMass": 50.0,
  "robotMOI": 6.883,
  "robotTrackwidth": 0.546,
  "driveWheelRadius": 0.051,
  "driveGearing": 6.75,
  "maxDriveSpeed": 4.5,
  "driveMotorType": "NEO",
  "driveCurrentLimit": 40.0,
  "wheelCOF": 1.19,
  "flModuleX": 0.314,
  "flModuleY": 0.314,
  "frModuleX": 0.314,
  "frModuleY": -0.314,
  "blModuleX": -0.314,
  "blModuleY": 0.314,
  "brModuleX": -0.314,
  "brModuleY": -0.314,
  "bumperOffsetX": 0.0,
  "bumperOffsetY": 0.0,
  "robotFeatures": []
}