{
  "location": {
    "front": -12.375,
    "left": 12.375
  },
  "absoluteEncoderOffset": 145.4,
  "drive": {
    "type": "sparkmax_neo",
    "id": 11,
    "canbus": null
  },
  "inverted": {
    "drive": true,
    "angle": false
  },
  "angle": {
    "type": "sparkmax_neo",
    "id": 10,
    "canbus": null
  },
  "encoder": {
    "type": "cancoder",
    "id": 26,
    "canbus": null
  },
  "absoluteEncoderInverted": false
}